[
  {
    "imageURI": "http://gw.alicdn.com/bao/uploaded/i1/1722975673/O1CN011rmHL2ILvcz6CRG_!!1722975673.jpg_440x440q70.jpg",
    "description": "2020年春夏新品韩国黑灰色百搭毛边流苏裤脚九分休闲直筒牛仔裤男",
    "price": 85
  },
  {
    "imageURI": "http://gw.alicdn.com/bao/uploaded/i2/14076636/O1CN011ytKkj1tRiwTOKw_!!14076636.jpg_440x440q70.jpg",
    "description": "国棉壹厂 50年代美国海军通用宽腿裤 VR18A6003",
    "price": 599
  },
  {
    "imageURI": "http://gw.alicdn.com/bao/uploaded/i2/2711381017/O1CN011JNpFunyNGVcXW2_!!2711381017.jpg_440x440q70.jpg",
    "description": "白糖玫瑰/18 侧边拼色牛仔长裤男修身小脚韩版潮学生个性百搭裤子",
    "price": 128
  },
  {
    "imageURI": "http://gw.alicdn.com/bao/uploaded/i4/419509787/O1CN012MAUlNyO7aUTWVH_!!419509787.jpg_440x440q70.jpg",
    "description": "美式工装裤男潮牌宽松日系魔术贴束脚裤子男韩版哈伦潮流休闲长裤",
    "price": 145
  },
  {
    "imageURI": "http://gw.alicdn.com/bao/uploaded/i4/450343986/O1CN01rGBccE1fJdK1iqRoj_!!0-item_pic.jpg_440x440q70.jpg",
    "description": "ROARINGWILD AW18 咆哮野兽 深绿色斜纹双褶锥形长裤",
    "price": 470
  }
]
